<?xml version="1.0" encoding="UTF-8" standalone="no"?>
<!-- Created with Inkscape (http://www.inkscape.org/) -->

<svg
   xmlns:dc="http://purl.org/dc/elements/1.1/"
   xmlns:cc="http://creativecommons.org/ns#"
   xmlns:rdf="http://www.w3.org/1999/02/22-rdf-syntax-ns#"
   xmlns:svg="http://www.w3.org/2000/svg"
   xmlns="http://www.w3.org/2000/svg"
   xmlns:xlink="http://www.w3.org/1999/xlink"
   xmlns:sodipodi="http://sodipodi.sourceforge.net/DTD/sodipodi-0.dtd"
   xmlns:inkscape="http://www.inkscape.org/namespaces/inkscape"
   version="1.1"
   id="svg2"
   width="1411"
   height="686"
   viewBox="0 0 1411 686"
   sodipodi:docname="fig3c.svg"
   inkscape:version="0.92.3 (2405546, 2018-03-11)">
  <metadata
     id="metadata8">
    <rdf:RDF>
      <cc:Work
         rdf:about="">
        <dc:format>image/svg+xml</dc:format>
        <dc:type
           rdf:resource="http://purl.org/dc/dcmitype/StillImage" />
        <dc:title></dc:title>
      </cc:Work>
    </rdf:RDF>
  </metadata>
  <defs
     id="defs6">
    <marker
       inkscape:isstock="true"
       style="overflow:visible"
       id="marker1182"
       refX="0"
       refY="0"
       orient="auto"
       inkscape:stockid="Arrow1Send">
      <path
         transform="matrix(-0.2,0,0,-0.2,-1.2,0)"
         style="fill:#ff0000;fill-opacity:1;fill-rule:evenodd;stroke:#ff0000;stroke-width:1.00000003pt;stroke-opacity:1"
         d="M 0,0 5,-5 -12.5,0 5,5 Z"
         id="path1180"
         inkscape:connector-curvature="0" />
    </marker>
    <marker
       inkscape:stockid="Arrow1Send"
       orient="auto"
       refY="0"
       refX="0"
       id="Arrow1Send"
       style="overflow:visible"
       inkscape:isstock="true"
       inkscape:collect="always">
      <path
         id="path836"
         d="M 0,0 5,-5 -12.5,0 5,5 Z"
         style="fill:#ff0000;fill-opacity:1;fill-rule:evenodd;stroke:#ff0000;stroke-width:1.00000003pt;stroke-opacity:1"
         transform="matrix(-0.2,0,0,-0.2,-1.2,0)"
         inkscape:connector-curvature="0" />
    </marker>
  </defs>
  <sodipodi:namedview
     pagecolor="#ffffff"
     bordercolor="#666666"
     borderopacity="1"
     objecttolerance="10"
     gridtolerance="10"
     guidetolerance="10"
     inkscape:pageopacity="0"
     inkscape:pageshadow="2"
     inkscape:window-width="640"
     inkscape:window-height="480"
     id="namedview4"
     showgrid="false"
     inkscape:zoom="1.0418143"
     inkscape:cx="705.5"
     inkscape:cy="343"
     inkscape:current-layer="layer6"
     fit-margin-top="0"
     fit-margin-left="0"
     fit-margin-right="0"
     fit-margin-bottom="0" />
  <g
     inkscape:groupmode="layer"
     id="layer4"
     inkscape:label="figure"
     transform="translate(443.89523,9.208744)"
     style="display:inline"
     sodipodi:insensitive="true">
    <image
       sodipodi:absref="C:\Users\jchopard\Documents\work\sunagri\dvlpt\data_escalona_2003\src\data_escalona_2003\raw\fig3_tempranillo.png"
       xlink:href="fig3_tempranillo.png"
       width="1411"
       height="686"
       preserveAspectRatio="none"
       id="image990"
       x="-443.89523"
       y="-9.208744" />
  </g>
  <g
     inkscape:groupmode="layer"
     id="layer2"
     inkscape:label="x_axis"
     style="display:inline"
     transform="translate(443.89523,9.208744)"
     sodipodi:insensitive="true">
    <path
       style="opacity:1;fill:none;fill-opacity:1;stroke:#ff0000;stroke-width:3;stroke-linecap:butt;stroke-miterlimit:4;stroke-dasharray:none;stroke-dashoffset:0;stroke-opacity:1;marker-end:url(#Arrow1Send)"
       d="M -285.22538,609.37909 H 352.58167"
       id="path819"
       inkscape:connector-curvature="0"
       sodipodi:nodetypes="cc" />
    <g
       id="g1149"
       transform="translate(-334.35601,220.74743)">
      <text
         id="text1115"
         y="403.3284"
         x="107.56333"
         style="font-style:normal;font-weight:normal;font-size:24px;line-height:125%;font-family:sans-serif;letter-spacing:0px;word-spacing:0px;fill:#000000;fill-opacity:1;stroke:none;stroke-width:1px;stroke-linecap:butt;stroke-linejoin:miter;stroke-opacity:1"
         xml:space="preserve"><tspan
           style="font-size:10.66666698px"
           y="403.3284"
           x="107.56333"
           id="tspan1113"
           sodipodi:role="line">1</tspan></text>
      <path
         inkscape:connector-curvature="0"
         id="path1103"
         d="m 114.2925,380.61526 v 12.46996"
         style="opacity:1;fill:none;fill-opacity:1;stroke:#ff0000;stroke-width:3;stroke-linecap:butt;stroke-miterlimit:4;stroke-dasharray:none;stroke-dashoffset:0;stroke-opacity:1" />
    </g>
    <g
       id="g1142"
       transform="translate(-344.34517,220.74743)">
      <text
         xml:space="preserve"
         style="font-style:normal;font-weight:normal;font-size:24px;line-height:125%;font-family:sans-serif;letter-spacing:0px;word-spacing:0px;fill:#000000;fill-opacity:1;stroke:none;stroke-width:1px;stroke-linecap:butt;stroke-linejoin:miter;stroke-opacity:1"
         x="185.1431"
         y="403.3284"
         id="text1119"><tspan
           sodipodi:role="line"
           id="tspan1117"
           x="185.1431"
           y="403.3284"
           style="font-size:10.66666698px">2</tspan></text>
      <path
         style="opacity:1;fill:none;fill-opacity:1;stroke:#ff0000;stroke-width:3;stroke-linecap:butt;stroke-miterlimit:4;stroke-dasharray:none;stroke-dashoffset:0;stroke-opacity:1"
         d="m 195.69779,380.61526 v 12.46996"
         id="path1105"
         inkscape:connector-curvature="0" />
    </g>
    <g
       id="g1156"
       transform="translate(-434.53364,220.74743)">
      <text
         xml:space="preserve"
         style="font-style:normal;font-weight:normal;font-size:24px;line-height:125%;font-family:sans-serif;letter-spacing:0px;word-spacing:0px;fill:#000000;fill-opacity:1;stroke:none;stroke-width:1px;stroke-linecap:butt;stroke-linejoin:miter;stroke-opacity:1"
         x="346.68381"
         y="403.3284"
         id="text1127"><tspan
           sodipodi:role="line"
           id="tspan1125"
           x="346.68381"
           y="403.3284"
           style="font-size:10.66666698px">3</tspan></text>
      <path
         style="opacity:1;fill:none;fill-opacity:1;stroke:#ff0000;stroke-width:3;stroke-linecap:butt;stroke-miterlimit:4;stroke-dasharray:none;stroke-dashoffset:0;stroke-opacity:1"
         d="m 356.9338,380.61526 v 12.46996"
         id="path1109"
         inkscape:connector-curvature="0" />
    </g>
    <g
       id="g1170"
       transform="translate(-444.47499,220.74743)">
      <text
         id="text1131"
         y="403.3284"
         x="427.30182"
         style="font-style:normal;font-weight:normal;font-size:24px;line-height:125%;font-family:sans-serif;letter-spacing:0px;word-spacing:0px;fill:#000000;fill-opacity:1;stroke:none;stroke-width:1px;stroke-linecap:butt;stroke-linejoin:miter;stroke-opacity:1"
         xml:space="preserve"><tspan
           style="font-size:10.66666698px"
           y="403.3284"
           x="427.30182"
           id="tspan1129"
           sodipodi:role="line">4</tspan></text>
      <path
         inkscape:connector-curvature="0"
         id="path1111"
         d="m 437.55181,380.61526 v 12.46996"
         style="opacity:1;fill:none;fill-opacity:1;stroke:#ff0000;stroke-width:3;stroke-linecap:butt;stroke-miterlimit:4;stroke-dasharray:none;stroke-dashoffset:0;stroke-opacity:1" />
    </g>
    <g
       transform="translate(-372.96426,220.74743)"
       id="g1067">
      <text
         xml:space="preserve"
         style="font-style:normal;font-weight:normal;font-size:24px;line-height:125%;font-family:sans-serif;letter-spacing:0px;word-spacing:0px;fill:#000000;fill-opacity:1;stroke:none;stroke-width:1px;stroke-linecap:butt;stroke-linejoin:miter;stroke-opacity:1"
         x="427.30182"
         y="403.3284"
         id="text1063"><tspan
           sodipodi:role="line"
           id="tspan1061"
           x="427.30182"
           y="403.3284"
           style="font-size:10.66666698px">5</tspan></text>
      <path
         style="opacity:1;fill:none;fill-opacity:1;stroke:#ff0000;stroke-width:3;stroke-linecap:butt;stroke-miterlimit:4;stroke-dasharray:none;stroke-dashoffset:0;stroke-opacity:1"
         d="m 437.55181,380.61526 v 12.46996"
         id="path1065"
         inkscape:connector-curvature="0" />
    </g>
    <g
       id="g1455"
       transform="translate(-303.20779,220.74743)">
      <text
         id="text1451"
         y="403.3284"
         x="427.30182"
         style="font-style:normal;font-weight:normal;font-size:24px;line-height:125%;font-family:sans-serif;letter-spacing:0px;word-spacing:0px;fill:#000000;fill-opacity:1;stroke:none;stroke-width:1px;stroke-linecap:butt;stroke-linejoin:miter;stroke-opacity:1"
         xml:space="preserve"><tspan
           style="font-size:10.66666698px"
           y="403.3284"
           x="427.30182"
           id="tspan1449"
           sodipodi:role="line">6</tspan></text>
      <path
         inkscape:connector-curvature="0"
         id="path1453"
         d="m 437.55181,380.61526 v 12.46996"
         style="opacity:1;fill:none;fill-opacity:1;stroke:#ff0000;stroke-width:3;stroke-linecap:butt;stroke-miterlimit:4;stroke-dasharray:none;stroke-dashoffset:0;stroke-opacity:1" />
    </g>
    <g
       transform="translate(-232.36701,220.74743)"
       id="g1463">
      <text
         xml:space="preserve"
         style="font-style:normal;font-weight:normal;font-size:24px;line-height:125%;font-family:sans-serif;letter-spacing:0px;word-spacing:0px;fill:#000000;fill-opacity:1;stroke:none;stroke-width:1px;stroke-linecap:butt;stroke-linejoin:miter;stroke-opacity:1"
         x="427.30182"
         y="403.3284"
         id="text1459"><tspan
           sodipodi:role="line"
           id="tspan1457"
           x="427.30182"
           y="403.3284"
           style="font-size:10.66666698px">7</tspan></text>
      <path
         style="opacity:1;fill:none;fill-opacity:1;stroke:#ff0000;stroke-width:3;stroke-linecap:butt;stroke-miterlimit:4;stroke-dasharray:none;stroke-dashoffset:0;stroke-opacity:1"
         d="m 437.55181,380.61526 v 12.46996"
         id="path1461"
         inkscape:connector-curvature="0" />
    </g>
    <g
       id="g1471"
       transform="translate(-161.88767,220.74743)">
      <text
         id="text1467"
         y="403.3284"
         x="427.30182"
         style="font-style:normal;font-weight:normal;font-size:24px;line-height:125%;font-family:sans-serif;letter-spacing:0px;word-spacing:0px;fill:#000000;fill-opacity:1;stroke:none;stroke-width:1px;stroke-linecap:butt;stroke-linejoin:miter;stroke-opacity:1"
         xml:space="preserve"><tspan
           style="font-size:10.66666698px"
           y="403.3284"
           x="427.30182"
           id="tspan1465"
           sodipodi:role="line">8</tspan></text>
      <path
         inkscape:connector-curvature="0"
         id="path1469"
         d="m 437.55181,380.61526 v 12.46996"
         style="opacity:1;fill:none;fill-opacity:1;stroke:#ff0000;stroke-width:3;stroke-linecap:butt;stroke-miterlimit:4;stroke-dasharray:none;stroke-dashoffset:0;stroke-opacity:1" />
    </g>
  </g>
  <g
     inkscape:groupmode="layer"
     id="layer1"
     inkscape:label="y_axis"
     style="display:inline"
     transform="translate(443.89523,9.208744)"
     sodipodi:insensitive="true">
    <path
       style="opacity:1;fill:none;fill-opacity:1;stroke:#ff0000;stroke-width:3;stroke-linecap:butt;stroke-miterlimit:4;stroke-dasharray:none;stroke-dashoffset:0;stroke-opacity:1;marker-end:url(#marker1182)"
       d="M -284.52429,610.27178 V 29.061895"
       id="path1172"
       inkscape:connector-curvature="0"
       sodipodi:nodetypes="cc" />
    <g
       transform="translate(-389.01898,309.67085)"
       id="g1321">
      <path
         inkscape:connector-curvature="0"
         id="path1315"
         d="M 98.259695,299.30108 H 110.72966"
         style="opacity:1;fill:none;fill-opacity:1;stroke:#ff0000;stroke-width:3;stroke-linecap:butt;stroke-miterlimit:4;stroke-dasharray:none;stroke-dashoffset:0;stroke-opacity:1" />
      <text
         id="text1319"
         y="304.14484"
         x="67.308731"
         style="font-style:normal;font-weight:normal;font-size:24px;line-height:125%;font-family:sans-serif;letter-spacing:0px;word-spacing:0px;fill:#000000;fill-opacity:1;stroke:none;stroke-width:1px;stroke-linecap:butt;stroke-linejoin:miter;stroke-opacity:1"
         xml:space="preserve"><tspan
           style="font-size:13.33333302px"
           y="304.14484"
           x="67.308731"
           id="tspan1317"
           sodipodi:role="line">0</tspan></text>
    </g>
    <g
       transform="translate(-389.01898,241.42464)"
       id="g1337">
      <path
         inkscape:connector-curvature="0"
         id="path1331"
         d="M 98.259695,299.30108 H 110.72966"
         style="opacity:1;fill:none;fill-opacity:1;stroke:#ff0000;stroke-width:3;stroke-linecap:butt;stroke-miterlimit:4;stroke-dasharray:none;stroke-dashoffset:0;stroke-opacity:1" />
      <text
         id="text1335"
         y="304.14484"
         x="67.308731"
         style="font-style:normal;font-weight:normal;font-size:24px;line-height:125%;font-family:sans-serif;letter-spacing:0px;word-spacing:0px;fill:#000000;fill-opacity:1;stroke:none;stroke-width:1px;stroke-linecap:butt;stroke-linejoin:miter;stroke-opacity:1"
         xml:space="preserve"><tspan
           style="font-size:13.33333302px"
           y="304.14484"
           x="67.308731"
           id="tspan1333"
           sodipodi:role="line">1</tspan></text>
    </g>
    <g
       id="g1345"
       transform="translate(-389.01898,174.10147)">
      <path
         style="opacity:1;fill:none;fill-opacity:1;stroke:#ff0000;stroke-width:3;stroke-linecap:butt;stroke-miterlimit:4;stroke-dasharray:none;stroke-dashoffset:0;stroke-opacity:1"
         d="M 98.259695,299.30108 H 110.72966"
         id="path1339"
         inkscape:connector-curvature="0" />
      <text
         xml:space="preserve"
         style="font-style:normal;font-weight:normal;font-size:24px;line-height:125%;font-family:sans-serif;letter-spacing:0px;word-spacing:0px;fill:#000000;fill-opacity:1;stroke:none;stroke-width:1px;stroke-linecap:butt;stroke-linejoin:miter;stroke-opacity:1"
         x="67.308731"
         y="304.14484"
         id="text1343"><tspan
           sodipodi:role="line"
           id="tspan1341"
           x="67.308731"
           y="304.14484"
           style="font-size:13.33333302px">2</tspan></text>
    </g>
    <g
       transform="translate(-389.01898,107.1607)"
       id="g1353">
      <path
         inkscape:connector-curvature="0"
         id="path1347"
         d="M 98.259695,299.30108 H 110.72966"
         style="opacity:1;fill:none;fill-opacity:1;stroke:#ff0000;stroke-width:3;stroke-linecap:butt;stroke-miterlimit:4;stroke-dasharray:none;stroke-dashoffset:0;stroke-opacity:1" />
      <text
         id="text1351"
         y="304.14484"
         x="67.308731"
         style="font-style:normal;font-weight:normal;font-size:24px;line-height:125%;font-family:sans-serif;letter-spacing:0px;word-spacing:0px;fill:#000000;fill-opacity:1;stroke:none;stroke-width:1px;stroke-linecap:butt;stroke-linejoin:miter;stroke-opacity:1"
         xml:space="preserve"><tspan
           style="font-size:13.33333302px"
           y="304.14484"
           x="67.308731"
           id="tspan1349"
           sodipodi:role="line">3</tspan></text>
    </g>
    <g
       id="g1479"
       transform="translate(-389.01898,40.295682)">
      <path
         style="opacity:1;fill:none;fill-opacity:1;stroke:#ff0000;stroke-width:3;stroke-linecap:butt;stroke-miterlimit:4;stroke-dasharray:none;stroke-dashoffset:0;stroke-opacity:1"
         d="M 98.259695,299.30108 H 110.72966"
         id="path1473"
         inkscape:connector-curvature="0" />
      <text
         xml:space="preserve"
         style="font-style:normal;font-weight:normal;font-size:24px;line-height:125%;font-family:sans-serif;letter-spacing:0px;word-spacing:0px;fill:#000000;fill-opacity:1;stroke:none;stroke-width:1px;stroke-linecap:butt;stroke-linejoin:miter;stroke-opacity:1"
         x="67.308731"
         y="304.14484"
         id="text1477"><tspan
           sodipodi:role="line"
           id="tspan1475"
           x="67.308731"
           y="304.14484"
           style="font-size:13.33333302px">4</tspan></text>
    </g>
    <g
       transform="translate(-389.01898,-28.015066)"
       id="g1487">
      <path
         inkscape:connector-curvature="0"
         id="path1481"
         d="M 98.259695,299.30108 H 110.72966"
         style="opacity:1;fill:none;fill-opacity:1;stroke:#ff0000;stroke-width:3;stroke-linecap:butt;stroke-miterlimit:4;stroke-dasharray:none;stroke-dashoffset:0;stroke-opacity:1" />
      <text
         id="text1485"
         y="304.14484"
         x="67.308731"
         style="font-style:normal;font-weight:normal;font-size:24px;line-height:125%;font-family:sans-serif;letter-spacing:0px;word-spacing:0px;fill:#000000;fill-opacity:1;stroke:none;stroke-width:1px;stroke-linecap:butt;stroke-linejoin:miter;stroke-opacity:1"
         xml:space="preserve"><tspan
           style="font-size:13.33333302px"
           y="304.14484"
           x="67.308731"
           id="tspan1483"
           sodipodi:role="line">5</tspan></text>
    </g>
    <g
       id="g1495"
       transform="translate(-389.01898,-95.602949)">
      <path
         style="opacity:1;fill:none;fill-opacity:1;stroke:#ff0000;stroke-width:3;stroke-linecap:butt;stroke-miterlimit:4;stroke-dasharray:none;stroke-dashoffset:0;stroke-opacity:1"
         d="M 98.259695,299.30108 H 110.72966"
         id="path1489"
         inkscape:connector-curvature="0" />
      <text
         xml:space="preserve"
         style="font-style:normal;font-weight:normal;font-size:24px;line-height:125%;font-family:sans-serif;letter-spacing:0px;word-spacing:0px;fill:#000000;fill-opacity:1;stroke:none;stroke-width:1px;stroke-linecap:butt;stroke-linejoin:miter;stroke-opacity:1"
         x="67.308731"
         y="304.14484"
         id="text1493"><tspan
           sodipodi:role="line"
           id="tspan1491"
           x="67.308731"
           y="304.14484"
           style="font-size:13.33333302px">6</tspan></text>
    </g>
    <g
       transform="translate(-389.01898,-164.27513)"
       id="g1503">
      <path
         inkscape:connector-curvature="0"
         id="path1497"
         d="M 98.259695,299.30108 H 110.72966"
         style="opacity:1;fill:none;fill-opacity:1;stroke:#ff0000;stroke-width:3;stroke-linecap:butt;stroke-miterlimit:4;stroke-dasharray:none;stroke-dashoffset:0;stroke-opacity:1" />
      <text
         id="text1501"
         y="304.14484"
         x="67.308731"
         style="font-style:normal;font-weight:normal;font-size:24px;line-height:125%;font-family:sans-serif;letter-spacing:0px;word-spacing:0px;fill:#000000;fill-opacity:1;stroke:none;stroke-width:1px;stroke-linecap:butt;stroke-linejoin:miter;stroke-opacity:1"
         xml:space="preserve"><tspan
           style="font-size:13.33333302px"
           y="304.14484"
           x="67.308731"
           id="tspan1499"
           sodipodi:role="line">7</tspan></text>
    </g>
    <g
       id="g1511"
       transform="translate(-389.01898,-231.50158)">
      <path
         style="opacity:1;fill:none;fill-opacity:1;stroke:#ff0000;stroke-width:3;stroke-linecap:butt;stroke-miterlimit:4;stroke-dasharray:none;stroke-dashoffset:0;stroke-opacity:1"
         d="M 98.259695,299.30108 H 110.72966"
         id="path1505"
         inkscape:connector-curvature="0" />
      <text
         xml:space="preserve"
         style="font-style:normal;font-weight:normal;font-size:24px;line-height:125%;font-family:sans-serif;letter-spacing:0px;word-spacing:0px;fill:#000000;fill-opacity:1;stroke:none;stroke-width:1px;stroke-linecap:butt;stroke-linejoin:miter;stroke-opacity:1"
         x="67.308731"
         y="304.14484"
         id="text1509"><tspan
           sodipodi:role="line"
           id="tspan1507"
           x="67.308731"
           y="304.14484"
           style="font-size:13.33333302px">8</tspan></text>
    </g>
  </g>
  <g
     inkscape:groupmode="layer"
     id="layer3"
     inkscape:label="pea_size"
     style="display:inline"
     transform="translate(443.89523,9.208744)"
     sodipodi:insensitive="true">
    <circle
       r="3.7727964"
       cy="587.82922"
       cx="261.60474"
       id="circle1280-0-6-4"
       style="display:inline;opacity:1;fill:none;fill-opacity:1;stroke:#8a0000;stroke-width:1;stroke-linecap:butt;stroke-miterlimit:4;stroke-dasharray:none;stroke-dashoffset:0;stroke-opacity:1" />
    <circle
       r="3.7727964"
       cy="486.62296"
       cx="191.57819"
       id="circle1280-0-6-3"
       style="display:inline;opacity:1;fill:none;fill-opacity:1;stroke:#8a0000;stroke-width:1;stroke-linecap:butt;stroke-miterlimit:4;stroke-dasharray:none;stroke-dashoffset:0;stroke-opacity:1" />
    <circle
       r="3.7727964"
       cy="377.74954"
       cx="121.04048"
       id="circle1280-0-6-2"
       style="display:inline;opacity:1;fill:none;fill-opacity:1;stroke:#8a0000;stroke-width:1;stroke-linecap:butt;stroke-miterlimit:4;stroke-dasharray:none;stroke-dashoffset:0;stroke-opacity:1" />
    <circle
       r="3.7727964"
       cy="254.56412"
       cx="51.525063"
       id="circle1280-0-6-7"
       style="display:inline;opacity:1;fill:none;fill-opacity:1;stroke:#8a0000;stroke-width:1;stroke-linecap:butt;stroke-miterlimit:4;stroke-dasharray:none;stroke-dashoffset:0;stroke-opacity:1" />
    <circle
       r="3.7727964"
       cy="207.53899"
       cx="-19.523767"
       id="circle1280-0-6-25"
       style="display:inline;opacity:1;fill:none;fill-opacity:1;stroke:#8a0000;stroke-width:1;stroke-linecap:butt;stroke-miterlimit:4;stroke-dasharray:none;stroke-dashoffset:0;stroke-opacity:1" />
    <circle
       r="3.7727964"
       cy="303.12268"
       cx="-91.083748"
       id="circle1280-0-6-9"
       style="display:inline;opacity:1;fill:none;fill-opacity:1;stroke:#8a0000;stroke-width:1;stroke-linecap:butt;stroke-miterlimit:4;stroke-dasharray:none;stroke-dashoffset:0;stroke-opacity:1" />
    <circle
       r="3.7727964"
       cy="371.10468"
       cx="-162.13261"
       id="circle1280-0-6-35"
       style="display:inline;opacity:1;fill:none;fill-opacity:1;stroke:#8a0000;stroke-width:1;stroke-linecap:butt;stroke-miterlimit:4;stroke-dasharray:none;stroke-dashoffset:0;stroke-opacity:1" />
    <circle
       r="3.7727964"
       cy="513.20239"
       cx="-235.22603"
       id="circle1280-0-6-1"
       style="display:inline;opacity:1;fill:none;fill-opacity:1;stroke:#8a0000;stroke-width:1;stroke-linecap:butt;stroke-miterlimit:4;stroke-dasharray:none;stroke-dashoffset:0;stroke-opacity:1" />
  </g>
  <g
     inkscape:groupmode="layer"
     id="layer5"
     inkscape:label="veraison"
     style="display:inline"
     sodipodi:insensitive="true">
    <circle
       r="3.7727964"
       cy="498.77795"
       cx="224.08818"
       id="circle1280-0-6-1-1"
       style="display:inline;opacity:1;fill:none;fill-opacity:1;stroke:#8abb00;stroke-width:1;stroke-linecap:butt;stroke-miterlimit:4;stroke-dasharray:none;stroke-dashoffset:0;stroke-opacity:1" />
    <circle
       r="3.7727964"
       cy="427.93716"
       cx="295.65179"
       id="circle1280-0-6-1-1-9"
       style="display:inline;opacity:1;fill:none;fill-opacity:1;stroke:#8abb00;stroke-width:1;stroke-linecap:butt;stroke-miterlimit:4;stroke-dasharray:none;stroke-dashoffset:0;stroke-opacity:1" />
    <circle
       r="3.7727964"
       cy="358.54211"
       cx="365.76971"
       id="circle1280-0-6-1-1-97"
       style="display:inline;opacity:1;fill:none;fill-opacity:1;stroke:#8abb00;stroke-width:1;stroke-linecap:butt;stroke-miterlimit:4;stroke-dasharray:none;stroke-dashoffset:0;stroke-opacity:1" />
    <circle
       r="3.7727964"
       cy="380.22809"
       cx="438.77908"
       id="circle1280-0-6-1-1-5"
       style="display:inline;opacity:1;fill:none;fill-opacity:1;stroke:#8abb00;stroke-width:1;stroke-linecap:butt;stroke-miterlimit:4;stroke-dasharray:none;stroke-dashoffset:0;stroke-opacity:1" />
    <circle
       r="3.7727964"
       cy="396.1311"
       cx="508.897"
       id="circle1280-0-6-1-1-4"
       style="display:inline;opacity:1;fill:none;fill-opacity:1;stroke:#8abb00;stroke-width:1;stroke-linecap:butt;stroke-miterlimit:4;stroke-dasharray:none;stroke-dashoffset:0;stroke-opacity:1" />
    <circle
       r="3.7727964"
       cy="417.81708"
       cx="579.01489"
       id="circle1280-0-6-1-1-6"
       style="display:inline;opacity:1;fill:none;fill-opacity:1;stroke:#8abb00;stroke-width:1;stroke-linecap:butt;stroke-miterlimit:4;stroke-dasharray:none;stroke-dashoffset:0;stroke-opacity:1" />
    <circle
       r="3.7727964"
       cy="487.93497"
       cx="649.13281"
       id="circle1280-0-6-1-1-3"
       style="display:inline;opacity:1;fill:none;fill-opacity:1;stroke:#8abb00;stroke-width:1;stroke-linecap:butt;stroke-miterlimit:4;stroke-dasharray:none;stroke-dashoffset:0;stroke-opacity:1" />
    <circle
       r="3.7727964"
       cy="584.07605"
       cx="719.97357"
       id="circle1280-0-6-1-1-33"
       style="display:inline;opacity:1;fill:none;fill-opacity:1;stroke:#8abb00;stroke-width:1;stroke-linecap:butt;stroke-miterlimit:4;stroke-dasharray:none;stroke-dashoffset:0;stroke-opacity:1" />
  </g>
  <g
     inkscape:groupmode="layer"
     id="layer6"
     inkscape:label="ripeness"
     style="display:inline"
     sodipodi:insensitive="true">
    <circle
       r="3.7727964"
       cy="552.99286"
       cx="237.8226"
       id="circle1280-0-6-1-1-0"
       style="display:inline;opacity:1;fill:none;fill-opacity:1;stroke:#e1bb00;stroke-width:1;stroke-linecap:butt;stroke-miterlimit:4;stroke-dasharray:none;stroke-dashoffset:0;stroke-opacity:1" />
    <circle
       r="3.7727964"
       cy="499.50082"
       cx="308.66339"
       id="circle1280-0-6-1-1-0-3"
       style="display:inline;opacity:1;fill:none;fill-opacity:1;stroke:#e1bb00;stroke-width:1;stroke-linecap:butt;stroke-miterlimit:4;stroke-dasharray:none;stroke-dashoffset:0;stroke-opacity:1" />
    <circle
       r="3.7727964"
       cy="475.64627"
       cx="380.22702"
       id="circle1280-0-6-1-1-0-1"
       style="display:inline;opacity:1;fill:none;fill-opacity:1;stroke:#e1bb00;stroke-width:1;stroke-linecap:butt;stroke-miterlimit:4;stroke-dasharray:none;stroke-dashoffset:0;stroke-opacity:1" />
    <circle
       r="3.7727964"
       cy="461.18896"
       cx="451.06781"
       id="circle1280-0-6-1-1-0-7"
       style="display:inline;opacity:1;fill:none;fill-opacity:1;stroke:#e1bb00;stroke-width:1;stroke-linecap:butt;stroke-miterlimit:4;stroke-dasharray:none;stroke-dashoffset:0;stroke-opacity:1" />
    <circle
       r="3.7727964"
       cy="430.10577"
       cx="521.90857"
       id="circle1280-0-6-1-1-0-79"
       style="display:inline;opacity:1;fill:none;fill-opacity:1;stroke:#e1bb00;stroke-width:1;stroke-linecap:butt;stroke-miterlimit:4;stroke-dasharray:none;stroke-dashoffset:0;stroke-opacity:1" />
    <circle
       r="3.7727964"
       cy="454.68317"
       cx="593.47223"
       id="circle1280-0-6-1-1-0-9"
       style="display:inline;opacity:1;fill:none;fill-opacity:1;stroke:#e1bb00;stroke-width:1;stroke-linecap:butt;stroke-miterlimit:4;stroke-dasharray:none;stroke-dashoffset:0;stroke-opacity:1" />
    <circle
       r="3.7727964"
       cy="516.12671"
       cx="662.86725"
       id="circle1280-0-6-1-1-0-2"
       style="display:inline;opacity:1;fill:none;fill-opacity:1;stroke:#e1bb00;stroke-width:1;stroke-linecap:butt;stroke-miterlimit:4;stroke-dasharray:none;stroke-dashoffset:0;stroke-opacity:1" />
    <circle
       r="3.7727964"
       cy="571.06445"
       cx="732.98517"
       id="circle1280-0-6-1-1-0-23"
       style="display:inline;opacity:1;fill:none;fill-opacity:1;stroke:#e1bb00;stroke-width:1;stroke-linecap:butt;stroke-miterlimit:4;stroke-dasharray:none;stroke-dashoffset:0;stroke-opacity:1" />
  </g>
</svg>
