{
  ".coveragerc": {
    "coverage": "F9gC1vtgpdJP22TPVLo3+fdPV6IFHlzhhzXjAgTaN4m8TiTOuIMXgVglX3P6FcbF8fxHVlg8WYoQ9gbcaRtlYA=="
  },
  ".gitattributes": {},
  ".gitignore": {
    "git": "YdtuBgiebZYkx7gPnUrg80WPRfLMS9mGty7W3hFEzLlp+PDuNfiaAEbuqAAU7a1tCXWXxjBmPKuGcDeOQfrhYg=="
  },
  ".gitlab-ci.yml": {
    "glabbase.before": "71eK3GiwIpELtMkDyYpJSekqXNUXjwt0j+qWo9fh15j2fz2qtd8vuJj5tj/r3v4p2t09Et0ApU31D63FCgVtMQ==",
    "glabbase.image": "W6vyLsVpEFtBr33486EZJg/b3PlUbxuG3zwUdj8zlD9UUSMcuyKH2hltl82pXSf4Mi7tb5wulVxPOE1nk9E2TA==",
    "glabbase.stages": "b+jsaYyljn9N2c6bQ4tzUE0RvGXL3iTDDdguQH6728SPFkg0nwHuEX39ActAJoCub/LOgCcERW8UWKwQG073Aw==",
    "glabpkg_dev.before": "U7UyudytINNMFmJ7zpoa+MOrkoWAI3i9cX4rQf4yRPtZe7cTAM1Uzc4RVxQZH3PcPaalj8VJ5nqnJjPA1Yekkw==",
    "glabpkg_dev.pages": "hzcmoCRl4bmXWHwqVxRJUXr+AnbHP02ABF+VdU5CZw+aG+D7V3FyySONaPDEf31plB+rrFR+D4eh1Seyk7hY8Q==",
    "glabpkg_dev.stages": "ud0vGyEwLf57CU298RUcNP/gPK4W+M0luf63b9YhjYNRst/BV6toz2hrjQpl7mF/bqF27krAE5WlNNMDqSSEfw==",
    "glabpkg_dev.test": "9ZYwqi4Q9FNdDgf5ikoQHefNsRcXu7laui/Go4yAS+kv2JNB4ojKZJoFt2EJoGFxQNBTYpbHEChs7ZM/+XbCdw==",
    "glabpkg_dev.test_all": "D+MdxWjmMNGB1/o47BFpzoi87vwcUOEJ+Wn4WPEm39V4SrC1tClsibYCI/xkoW6ntsxwP7xOXrhWIrTi8WB7hw=="
  },
  ".gitlab/issue_templates/bug.md": {},
  ".gitlab/issue_templates/feature.md": {},
  ".gitlab/issue_templates/technical_task.md": {},
  ".pypirc": {
    "pypi.serverdescr": "d6B+Qvp4m8jn/exks3Rn+36F5CYJtuu7hnbIDZauGJVydBD8d2afBO1Pq0KNvhuDgx5x4tslaFISorNRxUqAXA==",
    "pypi.serverlist": "PC9SiM3/1x2vn66stkaGs8IZmA3C9zq9z6sBMLr74e3tdF5l0eBAZsagfMbQjPF+AW6evtXBtpEDMsF3dkjVHQ=="
  },
  "AUTHORS.rst": {
    "doc.authors": "/4DdVJ8b3rG94lfO9Lc7StWASvDQpuf73AL4vpQmxvi4N9ShPsMeP3Shwf6i2d3e4dvIUgDW1Mc0vUxg5LkbUw==",
    "doc.contributors": "J3DSW7KTgdo8oapZqBtZND/7nxY3IXay+rBR7ozFhOJKM047KgTFZPT/yFPdXFDnkAOisXboGHN5A1jNnTs++g=="
  },
  "CONTRIBUTING.rst": {},
  "HISTORY.rst": {},
  "LICENSE": {
    "license": "8T8OUqjlQha1L2WVIjMnlAuMC7QSOZ/Cft/ojnd+BkyKsbdSw6DAbXk1TlI6UvA8A23PQAb98UcVdMqO+ENkiw=="
  },
  "README.rst": {
    "doc": "wRM5LsHziZKBqyobWke2UMv4CmZKpsORghRYp40X2wHIt+9JTZEp77evTLf1WCYTi0RGPNSnpPeD6czI4YHaFQ==",
    "glabpkg_dev": "cOA8bYsgZS1+BbO4xU/li0PqIUSmLiweK4LbKdw5t8ERHK9/4iVzuo+be08GpylsrVgeBdOWcrTQHb7PbdZVxw=="
  },
  "conda/meta.yaml": {
    "conda.about": "3pL/0T0s/gt9yzhgNtHIAEAsmDpCueThv8bJ5Fd8Yk3+NQium1XoJenPvd9lPuG/htpR6LlmSiZ2/8Khp8DTjg==",
    "conda.package": "rx1TI8OfmsUVia27h2pq0FhmLnOsNNyokkFpsUp++2CdQawFynEMhfHDTTFvUnfAEWxwewzg/5gDXKnODTlTUA==",
    "conda.req_build": "T8hbKR6AU9GElyqMNNrnxSe8cvaGRacGcvoNETi9EWc+S1j/OmIThBHXe5AP8vSwFya+8N85A/CQhrkt66TQtg==",
    "conda.req_run": "R97RV2kpbCNY1frGOmCokKoaSbvYSCUm8BVMxB9i2uMYIvz+WndBoFaBomGLTkvI4e09RISbLYbsMetc/Hl7Aw==",
    "conda.src": "Lzbp176AVU0YantZQxB4LsR2jbxpZ/OlkvY2V4aWAEuzKEarh872uc1eRvsIYf/FsbxvcmUI84AezWlA72nI6A=="
  },
  "conda/requirements.yml": {
    "conda": "e64GtWTuQkCHOa2KeZk4rbbwbd86NSRp54YvAAhJTGY8A8lVv9ZIzR4PPdfd+aTzvVt3W4bQR59YjROhVvxxBQ=="
  },
  "conda/requirements_minimal.yml": {
    "conda": "BtSuxRAWPl5YmJp2dqHVlzkLpEkehtEJYLCawq5rNKvykKG4oZImJos6Zzp9jHjA0+G3aSUXTuxgL5ZKsqHJow=="
  },
  "doc/Makefile": {
    "sphinx": "EsaaEppe6Kw79WHpUyBigedrIraP6YlQDBg9Fu6jue32Rt6mCQkk2zH7gfOVqjT5bNpnXN90UfLkrzHVJCo6UQ=="
  },
  "doc/_static/nonempty.txt": {},
  "doc/authors.rst": {},
  "doc/badges/badge_doc.svg": {
    "glabpkg_dev": "KrAOCc4AelFFvqiGTii3mLryPRlBDXBQe55dDNjrw5SWa/r0cbrR+T9bkBwIY3OlYrI5xOtNf1U0qSymumGyHQ=="
  },
  "doc/badges/badge_pkging_conda.svg": {
    "glabpkg": "S2P1vc/Ly4kl5paC1YSxio3YL9CXFhXyMnR3q8cjCHH5NfAZcsXA7/a2ZLRpjNhGb7IyIAJy0JBkZlqx5kLgsg=="
  },
  "doc/badges/badge_pkging_pip.svg": {
    "glabpkg": "0IHPWY02mqa/3xHx22VEvBCKsgNIpVycARaf3PTo5OHeceC7+fW+P/CqHPYci99V3Y5/ufKD0fPmxTc4xyUoRA=="
  },
  "doc/badges/listing.rst": {
    "glabpkg": "rs4yROU5DdwnWeQyVLKpqta2/+p1We1P8r4RWx7R9DXwRf1ltUlXCnUZxlAjk8gchIfd+UpVNIfNaSKZkJp7Wg==",
    "glabpkg_dev": "w/qrxnIKJZGf1KrMHOj5M22uOD5GiS3a+LgxBtKm9PJa7IPl5nLlTBWqUq2Ywnsk76w+8OCCd4kgwQSCZtEroQ=="
  },
  "doc/biblio/biblio.rst": {},
  "doc/conf.py": {
    "sphinx": "yMos9U/+vGBBI+E1GYxFwhgMVImVphvjF6mYvCgPwwDKGqSbp7qSF8PYAHxGxTVeqIk5cwSNwbqvHhXEig+taQ=="
  },
  "doc/contributing.rst": {},
  "doc/history.rst": {},
  "doc/index.rst": {},
  "doc/installation.rst": {
    "glabpkg": "5TviLttw7n3Y92YLMMZ34GJClEfDsgdVog9xUbGrjPa6DqFpIdMQJArEV3tqn8to4IG0k7KDEWKs9gObZEO3jg=="
  },
  "doc/make.bat": {
    "sphinx": "E9sFsnXAm9uPYBn7f0Qb6edct0UKizsXRIJyjZISRCjHbT2HldXK4GIj1yO69R/OVSfnmdAX5lzXQ4wONQNFgA=="
  },
  "doc/management.rst": {},
  "doc/readme.rst": {
    "glabpkg_dev": "0ajafR/XHrMcEJmOAZzBEMFLr7YKAniDTvJEIEn3UcshwmXY2vTXhgoaa/NTMCWG/zPEgkiUXKkRlZGD7V6ToQ=="
  },
  "doc/usage.rst": {},
  "doc/user/index.rst": {},
  "doc/user/overview.rst": {},
  "example/readme.rst": {},
  "pyproject.toml": {
    "pyproject.build": "I2LGHHOpCXWlR8y2Sb2cY5UG39iTOOrVRVdA911ZyiSQt5YGkno3LbeRNL4DxPeE9zgYef1R8FDKDPB3U6f79g==",
    "pyproject.gui_scripts": "VNRlO4ElRuynet0DT31hGYve1t2FV1CooE7f9Bi+PIRMF5YmdymGAS4Q6k4woJdDJ3JILO7ozz/yv4RpujFdQQ==",
    "pyproject.project": "XBsnJ3oH6QOrYmajwcu09+PVGk74vPHkHLbopCYSrkoPoY9hKlWGHVjj26E1KFxsAiq3AIG95yj8wTCg95uB4A==",
    "pyproject.scripts": "nxzQt1CUNkpQiiU7Ajxf8abPXHZurGnQFv5j+v5nxAM9VwHmddCFUclVMs+nAk+DSBoFCOFU4k2hboyksj2e3Q==",
    "test": "a7gg4oeTBenfkmay67M0EEG+cJAt3QJ6Y2P1+a/4Jlltx94b1I3Gk3fxjbfjPbYIa2rTmB6AX7qcRQovl+iJPg=="
  },
  "raw/readme.rst": {},
  "requirements.txt": {
    "reqs": "e7i0NA0xjNBTNkYY3SrXihFvN4f1syDKkTXsCZ/o+cPuyGgsq0Eh6pvWfO+x8ESHC7QZBxmIUJbnY8/l2CqHNA=="
  },
  "requirements_minimal.txt": {
    "reqs": "AWuoxM/eZa+Zy1+ouKN+Lrc/SBs640mRZm3y4E/rbAOGZuvR7CtvYjlndWAzxwLd5fQj99R6tu0YJ/9TeDcx9w=="
  },
  "script/readme.rst": {},
  "src/escalona2003/__init__.py": {
    "glabdata": "NcZRz+yBeeoU3y12dw+wm0e8ukqIl0AfwFA5aEzPj+VPfUclV0E1UEO6Aj7cERLoRgsE6GwQjzVth7xgyRN6Ww==",
    "src": "L2dZgUBRC5qv3o09+1CbMcgYfQtR1ZNSvP8KlP8REQazZiAQAktALjpCC2ijdxvKPv/tN9KsZrzNW+lZMszSfg==",
    "version": "skSCnavrYKIlfN9Mpi+cANbU8gXulaKdlHryvkjkoSSpsag1I66dM+6JHm1aOdmKYU0rZNNgcIamCMbIL7IeMg=="
  },
  "src/escalona2003/clean/readme.rst": {},
  "src/escalona2003/info.py": {},
  "src/escalona2003/version.py": {
    "version": "bPhfROYTNT2Mfya4KC4Gez8S9ZFK8DZnVkZxmjl2B+uKjLALo7/6vDFWrlXXDlni7KGbH5zllXY9AQTq7jRJtQ=="
  },
  "test/conftest.py": {
    "test.pytest_addoption": "I/hswVryIEYvZRBcFqkfRBxLP6eZCwZSbQuPclkOkjHw4MApBst5h7H0ejnMMe4bmwHXMXR5DCSxOMj/FcCnjQ==",
    "test.pytest_cmdline_preparse": "xSyGhHc7oQ+1J/u8dEfh3cvlzNwlLMjRzT94EUeeVBUhvcSFo3kHOw38RwCz6ExcFPUk2h7wjGYGmKm6KpyMjg==",
    "test.pytest_collection": "a/3h30sLUHJ7xWsOrmfCInOOVXvm660dS+RxHwcDUcae2jHqDLRGhq/v8zgC+FSzN3pXaEaJ1QBJ9MNLOUBuCA==",
    "test.pytest_configure": "SjyTXdrRadJNWhVFYkAvXekjOqNtovwqKNizWD35oZ9XVmsdB/B+lQDzXNPZQ0D5flFpSEURUiGqIvifgEKZ9Q==",
    "test.pytest_import": "2ox6A0szNpUYZR5cJJRSW3OwEWR558BOiUMjC/OVkTPT++CF/OCgGSELCPL+7YHWaJGQKMw2rtCXmOMeSK5ZJA=="
  },
  "test/test_packaging.py": {
    "glabdata": "Lz9ordyjCu1JOBhTKIcNq8+Jgvmvn2anRmZvlH02c0hsxV36RrbaTjp0Lrumj1r3v0qRGjDyt7X47qLy8f/yeg==",
    "glabpkg_dev": "Ux4XVA4ZkMzsb8sqnn7Fsgxi7x4JhezKceEmldgSIxrad0yyIctNsg6CQWcPxq0kvueK2AlM2SG51oYJf7oT0Q=="
  }
}